<svg width="35" height="34" viewBox="0 0 35 34" fill="none" xmlns="http://www.w3.org/2000/svg">
<path d="M26.5501 15.1501C26.5501 15.6501 26.1501 16.0501 25.5501 16.0501C25.0501 16.0501 24.5501 15.6501 24.5501 15.1501C24.5501 12.3501 22.2501 10.0501 19.3501 10.0501C18.8501 10.0501 18.3501 9.65006 18.3501 9.15006C18.3501 8.65006 18.7501 8.25006 19.3501 8.25006C23.3501 8.25006 26.5501 11.3501 26.5501 15.1501ZM28.6501 15.1501C28.6501 10.1501 24.5501 6.15006 19.3501 6.15006C18.8501 6.15006 18.3501 5.75006 18.3501 5.25006C18.3501 4.75006 18.7501 4.35006 19.2501 4.35006C25.4501 4.35006 30.4501 9.25006 30.4501 15.1501C30.4501 15.6501 30.0501 16.0501 29.4501 16.0501C29.0501 16.0501 28.6501 15.6501 28.6501 15.1501ZM32.7501 15.1501C32.7501 8.05006 26.7501 2.25006 19.4501 2.25006C18.9501 2.25006 18.4501 1.85006 18.4501 1.35006C18.4501 0.850061 18.8501 0.450061 19.4501 0.450061C27.8501 0.450061 34.6501 7.05006 34.6501 15.2501C34.6501 15.7501 34.2501 16.1501 33.6501 16.1501C33.1501 16.0501 32.7501 15.6501 32.7501 15.1501ZM32.5501 27.6501C32.0501 28.9501 31.2501 30.1501 30.2501 31.2501C29.1501 32.2501 26.6501 32.0501 23.4501 30.5501C19.8501 28.9501 15.7501 26.0501 12.0501 22.3501C8.25011 18.6501 5.25011 14.7501 3.65011 11.2501C2.05011 8.05006 1.85011 5.65006 2.85011 4.55006C3.85011 3.55006 5.15011 2.85006 6.55011 2.35006C6.85011 2.25006 7.15011 2.15006 7.45011 2.15006C7.75011 2.15006 8.05011 2.25006 8.15011 2.55006L12.1501 7.85006C12.2501 8.05006 12.1501 8.25006 11.1501 9.05006C10.1501 9.95006 8.45011 11.3501 9.85011 13.2501C11.4501 15.3501 13.1501 17.3501 15.0501 19.2501C16.9501 21.1501 19.0501 22.8501 21.1501 24.3501C23.0501 25.6501 24.5501 24.0501 25.4501 23.0501C26.3501 22.1501 26.5501 22.0501 26.6501 22.1501L32.1501 26.0501C32.6501 26.2501 32.9501 26.4501 32.5501 27.6501ZM33.4501 24.5501L27.9501 20.6501C26.3501 19.4501 24.9501 20.9501 24.1501 21.8501C23.0501 23.0501 22.7501 23.1501 22.4501 22.8501C20.3501 21.3501 18.3501 19.7501 16.5501 17.9501C14.7501 16.1501 13.0501 14.2501 11.5501 12.2501C11.2501 11.8501 11.2501 11.6501 12.5501 10.5501C13.4501 9.75006 14.9501 8.45006 13.7501 6.85006L9.75011 1.55006C8.65011 0.0500606 7.15011 0.250061 5.95011 0.650061C4.25011 1.25006 2.75011 2.15006 1.55011 3.25006C-0.149886 4.85006 -0.0498861 7.95006 1.85011 11.9501C3.65011 15.6501 6.75011 19.7501 10.6501 23.5501C14.5501 27.3501 18.8501 30.3501 22.5501 32.1501C24.7501 33.1501 26.6501 33.6501 28.2501 33.6501C29.6501 33.6501 30.7501 33.2501 31.5501 32.4501C32.7501 31.2501 33.6501 29.7501 34.2501 28.1501C34.7501 27.0501 34.9501 25.6501 33.4501 24.5501Z" fill="#12100B"/>
</svg>
